<?xml version="1.0" encoding="utf-8"?>
<!-- Generator: Adobe Illustrator 16.0.0, SVG Export Plug-In . SVG Version: 6.00 Build 0)  -->
<!DOCTYPE svg PUBLIC "-//W3C//DTD SVG 1.1//EN" "http://www.w3.org/Graphics/SVG/1.1/DTD/svg11.dtd">
<svg version="1.1" id="Слой_1" xmlns="http://www.w3.org/2000/svg" xmlns:xlink="http://www.w3.org/1999/xlink" x="0px" y="0px"
	 width="225px" height="50px" viewBox="0 0 225 50" enable-background="new 0 0 225 50" xml:space="preserve">
<g>
	<path fill="#2A2C29" d="M77.734,11.636c-0.397-1.145-0.971-1.412-2.203-1.412h-3.379c-1.235,0-1.756,0.267-2.197,1.496
		L59.452,39.668c-0.438,1.185-0.131,1.752,1.192,1.752h3.03c2.194,0,2.771-0.353,3.206-1.626l1.408-4.127h10.847l1.364,4.127
		c0.4,1.273,1.057,1.626,3.251,1.626h3.3c1.269,0,1.622-0.567,1.188-1.752L77.734,11.636z M70.172,29.866l2.288-6.851
		c1.055-3.125,1.035-5.351,1.035-5.351h0.392c0,0,0.11,2.227,1.122,5.395l2.284,6.807H70.172z M107.674,10.228h-20.87
		c-1.363,0-1.797,0.438-1.797,1.799v2.943c0,1.319,0.434,1.761,1.797,1.761h6.9v22.893c0,1.354,0.438,1.797,1.752,1.797h3.562
		c1.363,0,1.806-0.442,1.806-1.797V16.73h6.85c1.363,0,1.803-0.442,1.803-1.761v-2.943
		C109.477,10.667,109.038,10.228,107.674,10.228 M126.44,21.693h-7.118v-5.094h13.226c1.319,0,1.801-0.483,1.801-1.802v-2.771
		c0-1.364-0.481-1.803-1.801-1.803h-18.581c-1.319,0-1.805,0.439-1.805,1.803v27.68c0,1.316,0.528,1.713,1.751,1.713h12.527
		c6.063,0,10.018-3.774,10.018-9.844C136.458,25.428,132.504,21.693,126.44,21.693 M125.428,35.05h-6.105v-6.986h6.105
		c2.33,0,3.647,1.409,3.647,3.513C129.075,33.648,127.758,35.05,125.428,35.05"/>
	<path fill="#2A2C29" d="M150.226,46.88h0.541V4.769h-0.541V46.88z M166.461,16.83c-0.437,0-1.081-0.167-1.477-0.53l-0.281,0.416
		c0.312,0.375,1.217,0.624,1.841,0.624c1.122,0,1.935-0.52,1.935-1.395c0-0.54-0.345-1.039-1.019-1.101v-0.021
		c0.602-0.218,0.842-0.665,0.842-1.123c0-0.759-0.595-1.227-1.686-1.227c-0.696,0-1.372,0.218-1.756,0.613l0.219,0.416
		c0.342-0.28,0.79-0.519,1.465-0.519c0.717,0,1.186,0.28,1.186,0.811c0,0.478-0.427,0.853-0.956,0.853h-0.739v0.447h0.79
		c0.665,0,1.082,0.291,1.082,0.779C167.906,16.477,167.314,16.83,166.461,16.83 M189.971,12.566h-0.542v4.68h0.542V12.566z
		 M202.104,14.448h-2.381v0.51h2.381V14.448z M193.434,17.247l-2.497-2.444l2.311-2.236h-0.698l-2.267,2.268l2.422,2.413H193.434z
		 M173.401,13.347v3.899h0.541v-4.68h-0.541l-3.118,3.899v-3.899h-0.541v4.68h0.541L173.401,13.347z M158.82,14.771h3.494
		l1.06,2.476h0.613l-3.172-7.342h-0.466l-3.173,7.342h0.584L158.82,14.771z M160.566,10.696l1.51,3.535h-3.026L160.566,10.696z
		 M181.325,17.247h0.541v-4.139h1.86v-0.541h-4.263v0.541h1.861V17.247z M196.149,12.474c-1.455,0-2.454,1.029-2.454,2.433
		c0,1.403,0.999,2.434,2.454,2.434c1.456,0,2.453-1.03,2.453-2.434C198.603,13.502,197.605,12.474,196.149,12.474 M196.149,16.83
		c-1.092,0-1.882-0.801-1.882-1.924c0-1.133,0.8-1.922,1.882-1.922c1.103,0,1.883,0.8,1.883,1.922
		C198.032,16.041,197.252,16.83,196.149,16.83 M176.961,12.474c-0.551,0-1.051,0.156-1.489,0.427l0.146,0.447
		c0.417-0.229,0.76-0.363,1.312-0.363c1.164,0,1.228,0.717,1.228,1.83c-0.376-0.271-0.895-0.354-1.269-0.354
		c-1.009,0-1.777,0.52-1.777,1.457c0,0.852,0.582,1.393,1.443,1.393c0.855,0,1.31-0.385,1.603-0.78v0.718h0.54v-2.901
		C178.696,13.16,178.26,12.474,176.961,12.474 M178.156,16.061c-0.26,0.343-0.646,0.738-1.436,0.738
		c-0.582,0-1.038-0.333-1.038-0.916c0-0.686,0.643-0.977,1.256-0.977c0.479,0,0.873,0.125,1.218,0.375V16.061z M188.396,16.581
		l-0.27-0.396c-0.322,0.374-0.854,0.645-1.457,0.645c-1.092,0-1.942-0.739-1.942-1.924c0-1.112,0.851-1.922,1.84-1.922
		c0.539,0,1.06,0.135,1.475,0.509l0.262-0.437c-0.448-0.427-1.093-0.583-1.82-0.583c-1.329,0-2.33,1.071-2.33,2.433
		c0,1.477,1.03,2.434,2.478,2.434C187.316,17.34,188.001,17.08,188.396,16.581 M196.393,24.176c-0.551,0-1.052,0.155-1.486,0.426
		l0.146,0.446c0.415-0.228,0.759-0.364,1.31-0.364c1.164,0,1.227,0.717,1.227,1.83c-0.373-0.271-0.893-0.354-1.268-0.354
		c-1.009,0-1.777,0.52-1.777,1.456c0,0.852,0.582,1.394,1.444,1.394c0.852,0,1.31-0.386,1.601-0.781v0.718h0.541v-2.899
		C198.129,24.861,197.692,24.176,196.393,24.176 M197.588,27.762c-0.259,0.343-0.645,0.738-1.433,0.738
		c-0.584,0-1.04-0.332-1.04-0.913c0-0.688,0.643-0.979,1.258-0.979c0.478,0,0.873,0.124,1.215,0.376V27.762z M188.803,24.268h-0.695
		l-2.27,2.268l2.425,2.411h0.728l-2.495-2.442L188.803,24.268z M203.164,26.317h-3.035v-2.049h-0.541v4.679h0.541v-2.121h3.035
		v2.121h0.541v-4.679h-0.541V26.317z M191.625,24.176c-1.54,0-2.371,1.07-2.371,2.432c0,1.477,1.008,2.435,2.484,2.435
		c0.624,0,1.3-0.22,1.727-0.667l-0.177-0.415c-0.322,0.332-0.885,0.57-1.518,0.57c-1.123,0-1.872-0.684-1.913-1.807h3.857
		c0.02-0.126,0.029-0.262,0.029-0.438C193.744,25.006,192.83,24.176,191.625,24.176 M189.825,26.275
		c0.093-0.915,0.706-1.591,1.746-1.591c0.979,0,1.603,0.603,1.622,1.591H189.825z M215.705,28.168v-3.9h-0.539v4.679h0.539
		l3.12-3.899v3.899h0.541v-4.679h-0.541L215.705,28.168z M224.541,24.268l-3.118,3.9v-3.9h-0.543v4.679h0.543l3.118-3.899v3.899
		h0.541v-4.679H224.541z M223.055,23.167c0.842,0,1.414-0.572,1.414-1.331h-0.488c0,0.509-0.375,0.914-0.926,0.914
		c-0.582,0-0.967-0.405-0.967-0.914h-0.49C221.598,22.595,222.129,23.167,223.055,23.167 M159.87,28.947h0.572v-6.738h2.693v-0.541
		h-5.959v0.541h2.693V28.947z M207.439,28.53c-1.092,0-1.945-0.737-1.945-1.923c0-1.111,0.854-1.923,1.843-1.923
		c0.539,0,1.058,0.136,1.477,0.509l0.26-0.438c-0.448-0.425-1.094-0.581-1.821-0.581c-1.331,0-2.328,1.07-2.328,2.432
		c0,1.477,1.028,2.435,2.474,2.435c0.687,0,1.373-0.262,1.768-0.761l-0.269-0.395C208.573,28.263,208.043,28.53,207.439,28.53
		 M214.014,24.268h-0.695l-2.266,2.268l2.421,2.411h0.729l-2.497-2.442L214.014,24.268z M210.197,28.947h0.543v-4.679h-0.543V28.947
		z M181.31,24.176c-1.457,0-2.455,1.028-2.455,2.432c0,1.405,0.998,2.435,2.455,2.435c1.455,0,2.452-1.029,2.452-2.435
		C183.762,25.204,182.765,24.176,181.31,24.176 M181.31,28.53c-1.093,0-1.884-0.799-1.884-1.923c0-1.133,0.801-1.923,1.884-1.923
		c1.102,0,1.882,0.8,1.882,1.923C183.191,27.74,182.411,28.53,181.31,28.53 M177.91,26.607c0-1.403-0.999-2.432-2.454-2.432
		c-1.457,0-2.453,1.028-2.453,2.432c0,1.405,0.996,2.435,2.453,2.435C176.911,29.042,177.91,28.013,177.91,26.607 M173.575,26.607
		c0-1.133,0.802-1.923,1.881-1.923c1.104,0,1.882,0.8,1.882,1.923c0,1.133-0.778,1.923-1.882,1.923
		C174.365,28.53,173.575,27.731,173.575,26.607 M184.986,28.947h0.541v-4.679h-0.541V28.947z M171.896,28.947h0.667l-1.86-2.411
		l1.758-2.268h-0.635l-1.509,1.935l-1.486-1.935h-0.666l1.758,2.287l-1.862,2.393h0.635l1.601-2.068L171.896,28.947z
		 M166.506,28.947h0.541v-4.679h-0.541l-3.12,3.9v-3.9h-0.541v4.679h0.541l3.12-3.899V28.947z M178.23,35.956h-0.697l-2.266,2.268
		l2.423,2.412h0.728l-2.495-2.443L178.23,35.956z M165.586,35.864c-0.551,0-1.05,0.155-1.486,0.426l0.146,0.446
		c0.417-0.227,0.759-0.363,1.312-0.363c1.164,0,1.227,0.716,1.227,1.83c-0.375-0.27-0.895-0.354-1.27-0.354
		c-1.007,0-1.778,0.521-1.778,1.455c0,0.854,0.582,1.394,1.445,1.394c0.854,0,1.312-0.384,1.603-0.78v0.718h0.541v-2.901
		C167.324,36.55,166.886,35.864,165.586,35.864 M166.783,39.45c-0.262,0.343-0.645,0.739-1.436,0.739
		c-0.582,0-1.04-0.332-1.04-0.915c0-0.687,0.646-0.979,1.259-0.979c0.478,0,0.873,0.125,1.217,0.375V39.45z M174.412,40.636h0.543
		v-4.68h-0.543V40.636z M172.357,38.005h-3.036v-2.049h-0.54v4.68h0.54v-2.12h3.036v2.12h0.543v-4.68h-0.543V38.005z
		 M160.092,36.301c-0.301,0-0.8,0.021-1.227,0.062v-2.464h3.443v-0.541h-4.014v7.278c0.425,0,0.987,0.031,1.632,0.031
		c1.725,0,2.786-0.77,2.786-2.267C162.713,37.111,161.816,36.301,160.092,36.301 M160.01,40.127c-0.415,0-0.803-0.021-1.145-0.032
		v-3.19c0.446-0.053,0.895-0.064,1.207-0.064c1.393,0,2.068,0.624,2.068,1.592C162.141,39.513,161.424,40.127,160.01,40.127"/>
	<path fill="#F43600" d="M41.59,0.09H8.318C3.743,0.09,0,3.833,0,8.408v33.273C0,46.257,3.743,50,8.318,50H41.59
		c4.575,0,8.318-3.743,8.318-8.319V8.408C49.908,3.833,46.165,0.09,41.59,0.09 M47.301,40.799c-0.076,0.111-0.224,0.143-0.337,0.077
		c-6.428-3.875-13.958-6.104-22.009-6.104c-8.051,0-15.583,2.229-22.009,6.104c-0.113,0.065-0.262,0.034-0.337-0.077
		c-0.076-0.111-0.051-0.26,0.053-0.34l0.03-0.025c5.811-4.479,10.861-10.146,14.756-16.892c3.896-6.746,6.276-13.948,7.25-21.218
		c0.018-0.125,0.125-0.223,0.256-0.223c0.13,0,0.237,0.097,0.254,0.223c0.975,7.27,3.356,14.472,7.251,21.218
		c3.896,6.747,8.945,12.413,14.756,16.892l0.03,0.025C47.351,40.539,47.377,40.688,47.301,40.799"/>
</g>
</svg>
