<?xml version="1.0" encoding="utf-8"?>
<!-- Generator: Adobe Illustrator 16.0.0, SVG Export Plug-In . SVG Version: 6.00 Build 0)  -->
<!DOCTYPE svg PUBLIC "-//W3C//DTD SVG 1.1//EN" "http://www.w3.org/Graphics/SVG/1.1/DTD/svg11.dtd">
<svg version="1.1" id="Слой_1" xmlns="http://www.w3.org/2000/svg" xmlns:xlink="http://www.w3.org/1999/xlink" x="0px" y="0px"
	 width="57.084px" height="57.084px" viewBox="0 0 57.084 57.084" enable-background="new 0 0 57.084 57.084" xml:space="preserve">
<path fill="#FE5000" d="M45.543,23.625H35.394v-8.526c0-1.571-1.278-2.849-2.851-2.849H12.184c-1.572,0-2.851,1.278-2.851,2.849
	v14.685c0,1.57,1.278,2.849,2.851,2.849h10.149v8.526c0,1.57,1.278,2.849,2.851,2.849h20.359c1.571,0,2.851-1.276,2.851-2.849
	V26.474C48.394,24.903,47.114,23.625,45.543,23.625z M46.644,26.474v4.276H24.083v-4.276c0-0.606,0.494-1.099,1.101-1.099h20.359
	C46.149,25.375,46.644,25.868,46.644,26.474z M12.184,14h20.359c0.606,0,1.101,0.493,1.101,1.099V18H11.083v-2.901
	C11.083,14.493,11.577,14,12.184,14z M22.333,26.474v4.409H12.184c-0.606,0-1.101-0.491-1.101-1.099v-9.909h22.561v3.75h-8.459
	C23.611,23.625,22.333,24.903,22.333,26.474z M45.543,42.258H25.184c-0.606,0-1.101-0.491-1.101-1.099v-8.534h22.561v8.534
	C46.644,41.767,46.149,42.258,45.543,42.258z"/>
<path fill="#FE5000" d="M48.389,57H8.779c-4.794,0-8.695-3.9-8.695-8.693V8.696c0-4.794,3.901-8.695,8.695-8.695h39.61
	c4.795,0,8.695,3.9,8.695,8.695v39.611C57.084,53.1,53.184,57,48.389,57z M8.779,1.933c-3.729,0-6.763,3.034-6.763,6.763v39.611
	c0,3.729,3.034,6.762,6.763,6.762h39.61c3.729,0,6.763-3.033,6.763-6.762V8.696c0-3.729-3.034-6.763-6.763-6.763H8.779z"/>
</svg>
