<?xml version="1.0" encoding="utf-8"?>
<!-- Generator: Adobe Illustrator 16.0.0, SVG Export Plug-In . SVG Version: 6.00 Build 0)  -->
<!DOCTYPE svg PUBLIC "-//W3C//DTD SVG 1.1//EN" "http://www.w3.org/Graphics/SVG/1.1/DTD/svg11.dtd">
<svg version="1.1" id="Слой_1" xmlns="http://www.w3.org/2000/svg" xmlns:xlink="http://www.w3.org/1999/xlink" x="0px" y="0px"
	 width="12px" height="12px" viewBox="0 0 12 12" enable-background="new 0 0 12 12" xml:space="preserve">
<g>
	<path fill="#347982" d="M9.922,2.032C8.865,0.975,7.538,0.269,6.137,0.007c-0.26-0.049-0.496,0.16-0.478,0.425v0.001
		C5.672,0.617,5.808,0.768,5.99,0.802c1.24,0.232,2.418,0.861,3.36,1.804c0.943,0.942,1.572,2.12,1.804,3.36
		c0.034,0.183,0.185,0.318,0.369,0.331h0.002c0.264,0.019,0.473-0.218,0.424-0.479c-0.261-1.4-0.969-2.727-2.026-3.784L9.922,2.032z
		"/>
	<path fill="#347982" d="M5.777,2.117L5.777,2.117C5.789,2.29,5.909,2.433,6.075,2.479c0.782,0.22,1.519,0.656,2.134,1.27
		C8.821,4.36,9.258,5.101,9.478,5.882c0.046,0.166,0.19,0.285,0.36,0.297l0,0c0.281,0.021,0.492-0.242,0.418-0.513
		C10,4.751,9.491,3.889,8.779,3.178C8.068,2.465,7.207,1.957,6.29,1.701C6.021,1.625,5.757,1.837,5.777,2.117z"/>
	<path fill="#347982" d="M5.9,3.885L5.9,3.885C5.911,4.03,5.999,4.159,6.13,4.222C6.466,4.384,6.783,4.61,7.065,4.891
		c0.282,0.282,0.508,0.6,0.668,0.935c0.064,0.132,0.192,0.222,0.339,0.231l0,0C8.378,6.078,8.598,5.76,8.465,5.482
		C8.268,5.069,7.99,4.673,7.637,4.319c-0.354-0.353-0.75-0.631-1.163-0.828C6.196,3.359,5.879,3.578,5.9,3.885z"/>
	<path fill="#347982" d="M2.967,8.989c2.765,2.765,6.174,3.838,7.832,2.181c0.223-0.223,0.4-0.482,0.531-0.769
		c0.074-0.16,0.102-0.338,0.074-0.511l-0.116-0.737c-0.054-0.343-0.305-0.622-0.64-0.714L8.518,7.86
		C8.213,7.777,7.886,7.864,7.662,8.088L7.053,8.697c-0.189,0.19-0.49,0.218-0.708,0.064C5.761,8.354,5.186,7.87,4.636,7.32
		c-0.55-0.55-1.033-1.125-1.44-1.707c-0.155-0.22-0.126-0.52,0.063-0.71l0.609-0.608c0.223-0.224,0.311-0.551,0.228-0.856
		L3.516,1.307c-0.091-0.334-0.371-0.586-0.713-0.64L2.066,0.553C1.892,0.525,1.714,0.552,1.555,0.626
		C1.268,0.756,1.01,0.934,0.787,1.158C-0.872,2.815,0.202,6.226,2.967,8.989z"/>
</g>
</svg>
