<?xml version="1.0" encoding="utf-8"?>
<!-- Generator: Adobe Illustrator 16.0.0, SVG Export Plug-In . SVG Version: 6.00 Build 0)  -->
<!DOCTYPE svg PUBLIC "-//W3C//DTD SVG 1.1//EN" "http://www.w3.org/Graphics/SVG/1.1/DTD/svg11.dtd">
<svg version="1.1" id="Слой_1" xmlns="http://www.w3.org/2000/svg" xmlns:xlink="http://www.w3.org/1999/xlink" x="0px" y="0px"
	 width="57.084px" height="57.084px" viewBox="0 0 57.084 57.084" enable-background="new 0 0 57.084 57.084" xml:space="preserve">
<g>
	<g>
		<path fill="#FFFFFF" d="M43.552,18.104h-7.269v-2.183c0-1.199-0.983-2.182-2.183-2.182H23.925c-1.2,0-2.183,0.982-2.183,2.182
			v2.183h-7.269c-1.208,0-2.183,0.974-2.183,2.173v8.74c0,0.642,0.28,1.246,0.722,1.679v9.957c0,1.199,0.983,2.174,2.183,2.174
			h27.636c1.199,0,2.182-0.975,2.182-2.174v-9.957c0.443-0.442,0.723-1.037,0.723-1.678v-8.741
			C45.735,19.079,44.752,18.104,43.552,18.104 M23.195,15.921c0-0.395,0.325-0.721,0.73-0.721h10.176
			c0.404,0,0.729,0.325,0.729,0.721v2.183H23.195V15.921z M43.552,40.653c0,0.396-0.324,0.722-0.721,0.722H15.195
			c-0.396,0-0.721-0.324-0.721-0.722l0,0v-9.271c0.721,0.09,5.286,0.678,9.515,1.01c0.315,1.805,2.399,3.166,5.024,3.166
			c2.625,0,4.708-1.363,5.024-3.166c4.237-0.332,8.819-0.92,9.515-1.01V40.653z M25.46,32.364l0.072-1.02
			c0.433-0.912,1.839-1.604,3.481-1.604c1.966,0,3.634,1.001,3.634,2.183s-1.668,2.184-3.634,2.184
			C27.299,34.104,25.811,33.339,25.46,32.364 M44.282,29.019c0,0.433-0.37,0.857-0.821,0.912c-0.054,0.01-5.015,0.648-9.562,1.019
			c-0.586-1.552-2.506-2.66-4.887-2.66c-2.372,0-4.302,1.108-4.889,2.66c-4.545-0.369-9.516-1.009-9.569-1.019
			c-0.434-0.055-0.812-0.479-0.812-0.912v-8.741c0-0.396,0.324-0.721,0.73-0.721H43.55c0.406,0,0.73,0.325,0.73,0.721v8.741H44.282z
			"/>
		<path fill="#FFFFFF" d="M42.831,43.077H15.195c-1.341,0-2.433-1.087-2.433-2.424v-9.854c-0.46-0.489-0.722-1.133-0.722-1.781
			v-8.74c0-1.336,1.091-2.423,2.433-2.423h7.019v-1.933c0-1.341,1.091-2.432,2.433-2.432h10.176c1.342,0,2.433,1.091,2.433,2.432
			v1.933h7.019c1.342,0,2.434,1.087,2.434,2.423v8.741c0,0.65-0.256,1.278-0.723,1.779v9.855
			C45.263,41.99,44.172,43.077,42.831,43.077z M14.473,18.354c-1.065,0-1.933,0.863-1.933,1.923v8.74
			c0,0.55,0.236,1.097,0.647,1.501l0.075,0.073v10.062c0,1.061,0.867,1.924,1.933,1.924h27.636c1.064,0,1.932-0.863,1.932-1.924
			V30.593l0.073-0.072c0.419-0.42,0.649-0.953,0.649-1.502v-8.741c0-1.061-0.867-1.923-1.935-1.923h-7.519v-2.433
			c0-1.065-0.867-1.932-1.934-1.932H23.925c-1.066,0-1.933,0.867-1.933,1.932v2.433H14.473z M42.831,41.625H15.195
			c-0.536,0-0.971-0.437-0.971-0.972v-9.555l0.455,0.057c4.434,0.558,7.521,0.845,9.33,0.986l0.193,0.016l0.033,0.191
			c0.3,1.715,2.309,2.959,4.778,2.959c2.468,0,4.479-1.244,4.778-2.959l0.033-0.191l0.192-0.016
			c4.142-0.324,8.643-0.896,9.502-1.009l0.282-0.036v9.557C43.802,41.188,43.366,41.625,42.831,41.625z M14.724,31.665v8.988
			c0,0.26,0.211,0.472,0.471,0.472h27.636c0.26,0,0.471-0.212,0.471-0.472v-8.987c-1.293,0.165-5.298,0.659-9.059,0.96
			c-0.448,1.854-2.607,3.182-5.23,3.182c-2.623,0-4.782-1.326-5.23-3.182C21.961,32.479,18.961,32.196,14.724,31.665z
			 M29.013,34.354c-1.797,0-3.39-0.801-3.788-1.905l-0.018-0.05l0.099-1.162c0.488-1.028,2.013-1.747,3.707-1.747
			c2.105,0,3.884,1.114,3.884,2.433C32.897,33.242,31.118,34.354,29.013,34.354z M25.713,32.326
			c0.355,0.875,1.759,1.528,3.299,1.528c1.803,0,3.385-0.902,3.385-1.933s-1.582-1.933-3.385-1.933c-1.46,0-2.809,0.596-3.235,1.422
			L25.713,32.326z M33.733,31.213l-0.066-0.177c-0.564-1.494-2.436-2.498-4.654-2.498s-4.089,1.004-4.655,2.499l-0.066,0.176
			l-0.188-0.017c-4.659-0.377-9.571-1.018-9.594-1.021c-0.544-0.067-1.017-0.598-1.017-1.157v-8.741c0-0.535,0.44-0.971,0.98-0.971
			h29.078c0.541,0,0.98,0.436,0.98,0.971v8.741c0,0.571-0.468,1.091-1.042,1.16c-0.01,0.002-4.971,0.646-9.569,1.02L33.733,31.213z
			 M14.474,19.807c-0.265,0-0.48,0.211-0.48,0.471v8.741c0,0.309,0.283,0.625,0.593,0.664c0.043,0.006,4.859,0.629,9.376,1.002
			c0.711-1.591,2.71-2.646,5.05-2.646c2.341,0,4.339,1.056,5.048,2.646c4.312-0.355,9.125-0.967,9.36-1.002
			c0.329-0.039,0.61-0.349,0.61-0.664v-8.741c0-0.26-0.217-0.471-0.48-0.471H14.474z M35.08,18.354H22.945v-2.433
			c0-0.535,0.439-0.971,0.98-0.971h10.176c0.539,0,0.979,0.436,0.979,0.971L35.08,18.354L35.08,18.354z M23.445,17.854H34.58v-1.933
			c0-0.26-0.215-0.471-0.479-0.471H23.925c-0.265,0-0.48,0.211-0.48,0.471V17.854z"/>
	</g>
</g>
<path fill="#FFFFFF" d="M48.389,57.084H8.779c-4.794,0-8.695-3.9-8.695-8.694V8.779c0-4.794,3.901-8.695,8.695-8.695h39.61
	c4.795,0,8.695,3.9,8.695,8.695v39.61C57.084,53.184,53.184,57.084,48.389,57.084z M8.779,2.017c-3.729,0-6.763,3.034-6.763,6.763
	v39.61c0,3.729,3.034,6.763,6.763,6.763h39.61c3.729,0,6.763-3.034,6.763-6.763V8.779c0-3.729-3.034-6.763-6.763-6.763H8.779z"/>
</svg>
